{
  "photos": {
	"page": 1,
	"pages": 94296,
	"perpage": 10,
	"total": "942956",
	"photo": [
	  {
		"id": "51015977707",
		"owner": "56430505@N03",
		"secret": "579fdb4585",
		"server": "65535",
		"farm": 66,
		"title": "Watching-7736-SC",
		"ispublic": 1,
		"isfriend": 0,
		"isfamily": 0
	  },
	  {
		"id": "51015788251",
		"owner": "39683033@N08",
		"secret": "1b29227cab",
		"server": "65535",
		"farm": 66,
		"title": "Mandy Monday: Blair Witch Cat",
		"ispublic": 1,
		"isfriend": 0,
		"isfamily": 0
	  },
	  {
		"id": "51014535663",
		"owner": "130794947@N08",
		"secret": "715da50807",
		"server": "65535",
		"farm": 66,
		"title": "Finally peace",
		"ispublic": 1,
		"isfriend": 0,
		"isfamily": 0
	  },
	  {
		"id": "51014247437",
		"owner": "145392722@N03",
		"secret": "93610a376c",
		"server": "65535",
		"farm": 66,
		"title": "\u2014 Don't go",
		"ispublic": 1,
		"isfriend": 0,
		"isfamily": 0
	  },
	  {
		"id": "51013849347",
		"owner": "29050762@N06",
		"secret": "0bfc8deaf7",
		"server": "65535",
		"farm": 66,
		"title": "Missy",
		"ispublic": 1,
		"isfriend": 0,
		"isfamily": 0
	  },
	  {
		"id": "51013692031",
		"owner": "7654953@N02",
		"secret": "7cf9752482",
		"server": "65535",
		"farm": 66,
		"title": "Orange Tabby Cat",
		"ispublic": 1,
		"isfriend": 0,
		"isfamily": 0
	  },
	  {
		"id": "51012876883",
		"owner": "46392104@N08",
		"secret": "0cfc319f8e",
		"server": "65535",
		"farm": 66,
		"title": "Bird watching",
		"ispublic": 1,
		"isfriend": 0,
		"isfamily": 0
	  },
	  {
		"id": "51012788273",
		"owner": "23764737@N05",
		"secret": "96f50b4e79",
		"server": "65535",
		"farm": 66,
		"title": "kitten",
		"ispublic": 1,
		"isfriend": 0,
		"isfamily": 0
	  },
	  {
		"id": "51013436266",
		"owner": "56430505@N03",
		"secret": "cd3414f240",
		"server": "65535",
		"farm": 66,
		"title": "Sleepy-7693",
		"ispublic": 1,
		"isfriend": 0,
		"isfamily": 0
	  },
	  {
		"id": "51011990643",
		"owner": "88082077@N06",
		"secret": "db150088b5",
		"server": "65535",
		"farm": 66,
		"title": "Cat walking on wooden fence against blue sky",
		"ispublic": 1,
		"isfriend": 0,
		"isfamily": 0
	  }
	]
  },
  "stat": "ok"
}
